{
  "images" : [
    {
      "idiom" : "universal",
      "filename" : "Screen Shot 2017-02-23 at 10.37.38 AM.png",
      "scale" : "1x"
    },
    {
      "idiom" : "universal",
      "scale" : "2x"
    },
    {
      "idiom" : "universal",
      "scale" : "3x"
    }
  ],
  "info" : {
    "version" : 1,
    "author" : "xcode"
  }
}